<svg xmlns="http://www.w3.org/2000/svg" width="27" height="27" viewBox="0 0 27 27">
  <metadata><?xpacket begin="﻿" id="W5M0MpCehiHzreSzNTczkc9d"?>
<x:xmpmeta xmlns:x="adobe:ns:meta/" x:xmptk="Adobe XMP Core 5.6-c138 79.159824, 2016/09/14-01:09:01        ">
   <rdf:RDF xmlns:rdf="http://www.w3.org/1999/02/22-rdf-syntax-ns#">
      <rdf:Description rdf:about=""/>
   </rdf:RDF>
</x:xmpmeta>
                                                                                                    
                                                                                                    
                                                                                                    
                                                                                                    
                                                                                                    
                                                                                                    
                                                                                                    
                                                                                                    
                                                                                                    
                                                                                                    
                                                                                                    
                                                                                                    
                                                                                                    
                                                                                                    
                                                                                                    
                                                                                                    
                                                                                                    
                                                                                                    
                                                                                                    
                                                                                                    
                           
<?xpacket end="w"?></metadata>
<defs>
    <style>
      .cls-1 {
        fill: #64c3c4;
        fill-rule: evenodd;
      }
    </style>
  </defs>
  <path id="catch" class="cls-1" d="M1192.36,3708.84a0.8,0.8,0,1,0,.8.8A0.8,0.8,0,0,0,1192.36,3708.84Zm4.24-2.91-0.12-.41-0.41-.12a13.606,13.606,0,0,0-4.53-.35,14.206,14.206,0,0,0-5.99,1.87,13.494,13.494,0,0,0,9.53,9.53,14.165,14.165,0,0,0,1.87-5.99A13.606,13.606,0,0,0,1196.6,3705.93Zm-4.24,6.08a2.375,2.375,0,1,1,2.38-2.37A2.375,2.375,0,0,1,1192.36,3712.01Zm-4.44,2.07a15.025,15.025,0,0,1-3.76-6.24,15.856,15.856,0,0,0-1.69,1.46,14.479,14.479,0,0,0-4.24,11.63,6.244,6.244,0,0,0-7.2,1.19l-1.03,1.02,8.86,8.86,1.02-1.03a6.244,6.244,0,0,0,1.19-7.2c0.4,0.04.85,0.06,1.34,0.06,0.38,0,.79-0.01,1.22-0.05a14.312,14.312,0,0,0,9.07-4.25,17.231,17.231,0,0,0,1.47-1.69A15.06,15.06,0,0,1,1187.92,3714.08Z" transform="translate(-1170 -3705)"/>
</svg>
