<svg xmlns="http://www.w3.org/2000/svg" width="24" height="22" viewBox="0 0 24 22">
  <metadata><?xpacket begin="﻿" id="W5M0MpCehiHzreSzNTczkc9d"?>
<x:xmpmeta xmlns:x="adobe:ns:meta/" x:xmptk="Adobe XMP Core 5.6-c138 79.159824, 2016/09/14-01:09:01        ">
   <rdf:RDF xmlns:rdf="http://www.w3.org/1999/02/22-rdf-syntax-ns#">
      <rdf:Description rdf:about=""/>
   </rdf:RDF>
</x:xmpmeta>
                                                                                                    
                                                                                                    
                                                                                                    
                                                                                                    
                                                                                                    
                                                                                                    
                                                                                                    
                                                                                                    
                                                                                                    
                                                                                                    
                                                                                                    
                                                                                                    
                                                                                                    
                                                                                                    
                                                                                                    
                                                                                                    
                                                                                                    
                                                                                                    
                                                                                                    
                                                                                                    
                           
<?xpacket end="w"?></metadata>
<defs>
    <style>
      .cls-1 {
        fill: #64c3c4;
        fill-rule: evenodd;
      }
    </style>
  </defs>
  <path id="eco" class="cls-1" d="M791,3715.46a2.365,2.365,0,1,0,2.4,2.37A2.394,2.394,0,0,0,791,3715.46Zm7.2,2.37a7.2,7.2,0,1,0-10.8,6.15l1.2-2.01a4.721,4.721,0,0,1-2.4-4.02,4.8,4.8,0,0,1,9.6,0,4.437,4.437,0,0,1-2.4,4.02l1.2,2.01A7.188,7.188,0,0,0,798.2,3717.83ZM791,3706a11.949,11.949,0,0,0-12,11.83,11.614,11.614,0,0,0,6,10.17l1.2-2.01a9.493,9.493,0,1,1,14.4-8.16,9.327,9.327,0,0,1-4.8,8.16L797,3728a11.747,11.747,0,0,0,6-10.17A11.949,11.949,0,0,0,791,3706Z" transform="translate(-779 -3706)"/>
</svg>
